{
  "name": "",
  "css_prefix_text": "icon-",
  "css_use_suffix": false,
  "hinting": true,
  "units_per_em": 1000,
  "ascent": 850,
  "glyphs": [
    {
      "uid": "bf882b30900da12fca090d9796bc3030",
      "css": "mail-3",
      "code": 59427,
      "src": "fontawesome"
    },
    {
      "uid": "8b80d36d4ef43889db10bc1f0dc9a862",
      "css": "user-1",
      "code": 59451,
      "src": "fontawesome"
    },
    {
      "uid": "381da2c2f7fd51f8de877c044d7f439d",
      "css": "picture",
      "code": 59441,
      "src": "fontawesome"
    },
    {
      "uid": "dc3f1d5b1d006f7f7b3b6295eccab9da",
      "css": "camera",
      "code": 59438,
      "src": "fontawesome"
    },
    {
      "uid": "9d3d9d6ce1ec63eaa26281e6162853c9",
      "css": "camera-alt",
      "code": 59439,
      "src": "fontawesome"
    },
    {
      "uid": "12f4ece88e46abd864e40b35e05b11cd",
      "css": "ok-1",
      "code": 59440,
      "src": "fontawesome"
    },
    {
      "uid": "d7271d490b71df4311e32cdacae8b331",
      "css": "home",
      "code": 59442,
      "src": "fontawesome"
    },
    {
      "uid": "6c83092421441296f5c4e8074b0cf32c",
      "css": "flag-empty",
      "code": 59443,
      "src": "fontawesome"
    },
    {
      "uid": "9c1376672bb4f1ed616fdd78a23667e9",
      "css": "comment-empty",
      "code": 59445,
      "src": "fontawesome"
    },
    {
      "uid": "cd21cbfb28ad4d903cede582157f65dc",
      "css": "bell",
      "code": 59444,
      "src": "fontawesome"
    },
    {
      "uid": "0d08dbb1dd648a43bdea81b7e6c9e036",
      "css": "location",
      "code": 59469,
      "src": "fontawesome"
    },
    {
      "uid": "1b5a5d7b7e3c71437f5a26befdd045ed",
      "css": "doc-1",
      "code": 59430,
      "src": "fontawesome"
    },
    {
      "uid": "c8585e1e5b0467f28b70bce765d5840c",
      "css": "docs-1",
      "code": 59429,
      "src": "fontawesome"
    },
    {
      "uid": "5408be43f7c42bccee419c6be53fdef5",
      "css": "doc-text-1",
      "code": 59428,
      "src": "fontawesome"
    },
    {
      "uid": "559647a6f430b3aeadbecd67194451dd",
      "css": "menu",
      "code": 59446,
      "src": "fontawesome"
    },
    {
      "uid": "e99461abfef3923546da8d745372c995",
      "css": "cog",
      "code": 59467,
      "src": "fontawesome"
    },
    {
      "uid": "98687378abd1faf8f6af97c254eb6cd6",
      "css": "cog-alt",
      "code": 59468,
      "src": "fontawesome"
    },
    {
      "uid": "531bc468eecbb8867d822f1c11f1e039",
      "css": "calendar-1",
      "code": 59447,
      "src": "fontawesome"
    },
    {
      "uid": "0b2b66e526028a6972d51a6f10281b4b",
      "css": "zoom-in",
      "code": 59457,
      "src": "fontawesome"
    },
    {
      "uid": "bc71f4c6e53394d5ba46b063040014f1",
      "css": "cw",
      "code": 59454,
      "src": "fontawesome"
    },
    {
      "uid": "f9c3205df26e7778abac86183aefdc99",
      "css": "ccw",
      "code": 59455,
      "src": "fontawesome"
    },
    {
      "uid": "a73c5deb486c8d66249811642e5d719a",
      "css": "arrows-cw",
      "code": 59456,
      "src": "fontawesome"
    },
    {
      "uid": "053b757d97042e1c94276200c7b64b91",
      "css": "briefcase",
      "code": 59431,
      "src": "fontawesome"
    },
    {
      "uid": "5ccf1ed249fd9d723ec1ce8629a9f507",
      "css": "suitcase",
      "code": 59432,
      "src": "fontawesome"
    },
    {
      "uid": "dd6c6b221a1088ff8a9b9cd32d0b3dd5",
      "css": "check",
      "code": 59463,
      "src": "fontawesome"
    },
    {
      "uid": "4b900d04e8ab8c82f080c1cfbac5772c",
      "css": "check-empty",
      "code": 59461,
      "src": "fontawesome"
    },
    {
      "uid": "130380e481a7defc690dfb24123a1f0c",
      "css": "circle",
      "code": 59460,
      "src": "fontawesome"
    },
    {
      "uid": "422e07e5afb80258a9c4ed1706498f8a",
      "css": "circle-empty",
      "code": 59459,
      "src": "fontawesome"
    },
    {
      "uid": "5774d0a0e50f6eefc8be01bd761e5dd3",
      "css": "circle-thin",
      "code": 59458,
      "src": "fontawesome"
    },
    {
      "uid": "4ffd8122933b9ee0183b925e1554969f",
      "css": "circle-notch",
      "code": 59462,
      "src": "fontawesome"
    },
    {
      "uid": "266d5d9adf15a61800477a5acf9a4462",
      "css": "chart-bar",
      "code": 59433,
      "src": "fontawesome"
    },
    {
      "uid": "9937d762aee170b7350b15dd02dd34a3",
      "css": "cab",
      "code": 59452,
      "src": "fontawesome"
    },
    {
      "uid": "e335adbc2d898c7d85d40c507796e7b4",
      "css": "mail",
      "code": 59404,
      "src": "entypo"
    },
    {
      "uid": "2cfb3f2b46b34a1790aec0aa846297b6",
      "css": "menu-1",
      "code": 59448,
      "src": "entypo"
    },
    {
      "uid": "005a38f6af74b31aeb817fedb09d2175",
      "css": "keyboard",
      "code": 59406,
      "src": "entypo"
    },
    {
      "uid": "16890362e811b4cb8de36282b071fe30",
      "css": "comment",
      "code": 59405,
      "src": "entypo"
    },
    {
      "uid": "2c0b53280f82068f6bab4e2200025d9f",
      "css": "chat",
      "code": 59408,
      "src": "entypo"
    },
    {
      "uid": "457c8e2b305e7af74c1be4f07a01ca92",
      "css": "vcard",
      "code": 59407,
      "src": "entypo"
    },
    {
      "uid": "64f5a50cf7ac972a56a9a511acb5d28e",
      "css": "map",
      "code": 59395,
      "src": "entypo"
    },
    {
      "uid": "f8513213799b244e66b2836aeee88531",
      "css": "direction",
      "code": 59396,
      "src": "entypo"
    },
    {
      "uid": "49bd3e825b8267f976f6d1ad391e2f4d",
      "css": "doc",
      "code": 59397,
      "src": "entypo"
    },
    {
      "uid": "922ab2cb66943a83de969990289ef1dc",
      "css": "docs",
      "code": 59398,
      "src": "entypo"
    },
    {
      "uid": "1189604bf305b6b03a74685ce60e6632",
      "css": "doc-text",
      "code": 59399,
      "src": "entypo"
    },
    {
      "uid": "51727ca007aa35ceabcaffc28934faee",
      "css": "book-open",
      "code": 59400,
      "src": "entypo"
    },
    {
      "uid": "48b79f27e4798f23bafa07b55dbe5b73",
      "css": "book",
      "code": 59401,
      "src": "entypo"
    },
    {
      "uid": "91426c82d94428a33353e495418435e3",
      "css": "share",
      "code": 59403,
      "src": "entypo"
    },
    {
      "uid": "413717f5ea649e8d8b93938be277264a",
      "css": "calendar",
      "code": 59402,
      "src": "entypo"
    },
    {
      "uid": "9248ce8062fb4707a6919bfe9ac1af8e",
      "css": "popup",
      "code": 59434,
      "src": "entypo"
    },
    {
      "uid": "744a71fe4b5ab7c4f4b7cd598e9bf75a",
      "css": "window",
      "code": 59394,
      "src": "entypo"
    },
    {
      "uid": "c311c48d79488965b0fab7f9cd12b6b5",
      "css": "left-open",
      "code": 59410,
      "src": "entypo"
    },
    {
      "uid": "749e7d90a9182938180f1d2d8c33584e",
      "css": "right-open",
      "code": 59409,
      "src": "entypo"
    },
    {
      "uid": "884cfc3e6e2d456dd2a2ca0dbb9e6337",
      "css": "left-open-big",
      "code": 59412,
      "src": "entypo"
    },
    {
      "uid": "004882ab2d5c418c5b2060e80596279b",
      "css": "right-open-big",
      "code": 59411,
      "src": "entypo"
    },
    {
      "uid": "b7a336095aa4535c3689cb557edf23db",
      "css": "monitor",
      "code": 59392,
      "src": "entypo"
    },
    {
      "uid": "767fede84586366cd7d6c835be745454",
      "css": "mobile",
      "code": 59393,
      "src": "entypo"
    },
    {
      "uid": "db112402805d9dadc01ce009fbfdb914",
      "css": "paper-plane-1",
      "code": 59437,
      "src": "entypo"
    },
    {
      "uid": "9ea7cce5e08e5ac2c225fabf2e6dc353",
      "css": "briefcase-1",
      "code": 59435,
      "src": "entypo"
    },
    {
      "uid": "11dd26ebf6934bf750a9156b353d7f2d",
      "css": "suitcase-1",
      "code": 59436,
      "src": "entypo"
    },
    {
      "uid": "d94334f23acba022bfd68e49d76b31bb",
      "css": "github",
      "code": 59413,
      "src": "entypo"
    },
    {
      "uid": "d090355c31f497b61d676416c1fd39fb",
      "css": "twitter",
      "code": 59416,
      "src": "entypo"
    },
    {
      "uid": "bc50457410acf467b8b5721240768742",
      "css": "facebook",
      "code": 59415,
      "src": "entypo"
    },
    {
      "uid": "b945f4ac2439565661e8e4878e35d379",
      "css": "gplus",
      "code": 59417,
      "src": "entypo"
    },
    {
      "uid": "7132e1233bc16cd1b6efe7e29d3613a5",
      "css": "linkedin",
      "code": 59414,
      "src": "entypo"
    },
    {
      "uid": "b90d80c250a9bbdd6cd3fe00e6351710",
      "css": "ok-2",
      "code": 59464,
      "src": "iconic"
    },
    {
      "uid": "11e664deed5b2587456a4f9c01d720b6",
      "css": "cancel",
      "code": 59453,
      "src": "iconic"
    },
    {
      "uid": "d061c177f823e3ab1eb38085f84efaf2",
      "css": "location-inv",
      "code": 59470,
      "src": "iconic"
    },
    {
      "uid": "rrhco7mfj6ro9yzhe4a1rbln9flw47re",
      "css": "cancel-1",
      "code": 59465,
      "src": "modernpics"
    },
    {
      "uid": "too2rspp5e6z6m0y6lconmv23uw3qlqo",
      "css": "location-1",
      "code": 59471,
      "src": "modernpics"
    },
    {
      "uid": "c55fdf978f617992b43ee7cbaa6ef87e",
      "css": "menu-2",
      "code": 59450,
      "src": "mfglabs"
    },
    {
      "uid": "2b6bf06e87a223ccd1ddc1874932ca86",
      "css": "th-thumb",
      "code": 59466,
      "src": "mfglabs"
    },
    {
      "uid": "5eb43711f62fb4dcbef10d0224c28065",
      "css": "th-thumb-empty",
      "code": 59449,
      "src": "mfglabs"
    },
    {
      "uid": "ce50292e85eb5d6ee3be61b32bf2bdf3",
      "css": "ok",
      "code": 59418,
      "src": "mfglabs"
    },
    {
      "uid": "abe051e31ad705400cf6226b24b6e828",
      "css": "desktop",
      "code": 59419,
      "src": "elusive"
    },
    {
      "uid": "91bac16b22827347e9ee20477f0b44d2",
      "css": "mail-1",
      "code": 59422,
      "src": "linecons"
    },
    {
      "uid": "56a0672588820ab1a16363e5d07dd22e",
      "css": "user",
      "code": 59421,
      "src": "linecons"
    },
    {
      "uid": "930c31d4c72bd792b5dceb6de607c3e0",
      "css": "tag",
      "code": 59473,
      "src": "linecons"
    },
    {
      "uid": "1ea8ad6dbe1ae9a73565ad16cf88de19",
      "css": "location-2",
      "code": 59472,
      "src": "linecons"
    },
    {
      "uid": "6fbd93c0d220507921015a15575009e5",
      "css": "paper-plane",
      "code": 59420,
      "src": "linecons"
    },
    {
      "uid": "d58dc0a0927a7dea2992f615f2fbf400",
      "css": "wallet",
      "code": 59423,
      "src": "linecons"
    },
    {
      "uid": "cba6018f5de17c76f70b7d2c06037e5a",
      "css": "mail-2",
      "code": 59424,
      "src": "websymbols"
    },
    {
      "uid": "04960bf02134620e6c61bac8d6569502",
      "css": "left-open-1",
      "code": 59426,
      "src": "websymbols"
    },
    {
      "uid": "715e1003368da5e5c41ae35190af68a1",
      "css": "right-open-1",
      "code": 59425,
      "src": "websymbols"
    }
  ]
}